[
{"job_title": "UX Researcher, Taxonomy", "description": "\nWe are looking for smart, passionate UX Researcher to support our  taxonomy team. Coordinate design inputs and research into  from UX design teams...", "company_name": "\n        Amazon Corporate LLC"},
{"job_title": "Entry Level Software Quality Engineer", "description": "\nBy continuing to  the site, you agree to our use of cookies View our privacy policy View our accessibility info....", "company_name": "\n        eBay Inc."},
{"job_title": "Brand Ambassador", "description": "\nGMR is hiring in Dallas, TX for Brand Ambassadors! We are currently seeking several Brand Ambassadors to help us make vital consumer connections via our", "company_name": "\n        GMR Marketing"},
{"job_title": "Education Program Consultant", "description": "\n the job requisition number to see the position description. To assist the Kansas State Department of Education to carry out the Kansas State Board of...", "company_name": "\n        Department of Education"},
{"job_title": "Earn Benefits Specialist", "description": "\nIncluding familiarity with Word, Excel, PowerPoint and the ability to  the Web comfortably; The EarnBenefits Specialist connects clients and their...", "company_name": "\n        Acacia Network"},
{"job_title": "Entry-Level Software Engineer", "description": "\nBy continuing to  the site, you agree to our use of cookies View our privacy policy View our accessibility info....", "company_name": "\n        eBay Inc."},
{"job_title": "Principal Systems Engineer (OBIEE Developer)", "description": "\nPlease take a moment to  through our website and learn more about what it means to serve with Halfaker....", "company_name": "\n        Halfaker and Associates"},
{"job_title": "Biological Science Technicians (Wildlife)", "description": "\nMakes  surveys; These positions are located on a Forest Service unit and performs duties in support of the wildlife management program....", "company_name": "\n        U.S. Forest Service"},
{"job_title": "Client Service Specialist", "description": "\nAbility to  internet sites and complete detailed data searches. Supports client employee benefits enrollment projects with Account Executives and other...", "company_name": ""},
{"job_title": "Business Associate", "description": "\nBy continuing to  the site, you agree to our use of cookies View our privacy policy View our accessibility info....", "company_name": "\n        eBay Inc."},
{"job_title": "Risk Specialist", "description": "\nWe\u2019ll get in touch with you to let you know the next steps but in the meantime feel free to  this:. Job Requisition Number:....", "company_name": "\n        Bloomberg"},
{"job_title": "Dispatcher", "description": "\nAbility to  the internet and also use the internal systems and websites for our customers. Rogers Electric is one of the country's leading electrical and...", "company_name": "\n        Rogers Electric"},
{"job_title": " Developer & Taxonomist", "description": "\nDevelop  structures to organize our extensive product selection for customers. We are looking for smart and passionate people to join our  Taxonomy...", "company_name": "\n        Amazon Corporate LLC"},
{"job_title": "Assistant Site Merchandiser - Beauty", "description": "\nExecute category merchandising based on customer behavior data, current product performance and inventory liabilities to provide an optimal customer experience...", "company_name": "\n        Nordstrom"},
{"job_title": "Customer Service Representative", "description": "\nHave you thought about getting into sales but didn't know how to get your foot in the door without sales experience? Beaverton Honda has built an extremely", "company_name": "\n        Lanphere Enterprises"},
{"job_title": "Senior Program Manager", "description": "\nBecome part of this growing team at Adobe and make a big impact by providing search, , machine learning and recommendations across our products and...", "company_name": "\n        Adobe"},
{"job_title": "Taxonomist", "description": "\nMeredith Taxonomists are responsible for creating and maintaining the vocabulary and data structures that drive the  and attribute based navigation...", "company_name": "\n        Meredith Corporation"},
{"job_title": "MTS 1", "description": "\nBy continuing to  the site, you agree to our use of cookies View our privacy policy View our accessibility info....", "company_name": "\n        eBay Inc."},
{"job_title": "Fresh Associate (Amazon)", "description": "\nThrough our partnership, shoppers can  groceries on Amazon's website and purchase anything from produce to fresh meat to dairy products and frozen food....", "company_name": "\n        Fresh Thyme Farmers Market"},
{"job_title": "Assistant Site Merchandiser (Interim)", "description": "\nExecute category merchandising based on customer behavior data, current product performance and inventory liabilities to provide an optimal customer experience...", "company_name": "\n        Nordstrom"},
{"job_title": "Associate Merchant., Watches", "description": "\nBy continuing to  the site, you agree to our use of cookies View our privacy policy View our accessibility info....", "company_name": "\n        eBay Inc."},
{"job_title": "Data Scientist", "description": "\nDevelop and improve algorithms and methodologies to handle, , process and visualize structured and unstructured data....", "company_name": "\n        Impetus Technologies"},
{"job_title": "Help Wanted", "description": "\nNow hiring at 4706 Highway 17 South, North Myrtle...", "company_name": ""},
{"job_title": "Marketing MBA", "description": "\nBy continuing to  the site, you agree to our use of cookies View our privacy policy View our accessibility info....", "company_name": "\n        eBay Inc."},
{"job_title": "Assistant Category Merchant", "description": "\nStrategies including search and , request ICC, effort pricing and other. The Assistant Category Merchant is responsible....", "company_name": "\n        Staples"},
{"job_title": "Equity Market Specialist", "description": "\nWe\u2019ll get in touch with you to let you know the next steps but in the meantime feel free to  this:. Job Requisition Number:....", "company_name": "\n        Bloomberg"},
{"job_title": "Sr Site Merchandiser- Holiday and Seasonal", "description": "\nDevelop Site Merchandising strategy and tactics to provide the best guest experience to easily find and buy products through onsite merchandising, content", "company_name": "\n        TARGET"},
{"job_title": "Inventory Planner", "description": "\nBy continuing to  the site, you agree to our use of cookies View our privacy policy View our accessibility info....", "company_name": "\n        eBay Inc."},
{"job_title": "Mentor for Highly Gifted Students for 2017-2018", "description": "\nMENTORS FOR THE HIGHLY GIFTED 2017-2018 SCHOOL YEAR Lincoln Public Schools Seeking qualified persons to work with Highly Gifted Students in the Visual Arts ", "company_name": "\n        Lincoln Public Schools"},
{"job_title": "Testing and Optimization Analyst", "description": "\nBy continuing to  the site, you agree to our use of cookies View our privacy policy View our accessibility info....", "company_name": "\n        eBay Inc."},
{"job_title": "UX Researcher, Taxonomy", "description": "\nWe are looking for smart, passionate UX Researcher to support our  taxonomy team. Coordinate design inputs and research into  from UX design teams...", "company_name": "\n        Amazon Corporate LLC"},
{"job_title": "Entry Level Software Quality Engineer", "description": "\nBy continuing to  the site, you agree to our use of cookies View our privacy policy View our accessibility info....", "company_name": "\n        eBay Inc."},
{"job_title": "Brand Ambassador", "description": "\nGMR is hiring in Dallas, TX for Brand Ambassadors! We are currently seeking several Brand Ambassadors to help us make vital consumer connections via our", "company_name": "\n        GMR Marketing"},
{"job_title": "Education Program Consultant", "description": "\n the job requisition number to see the position description. To assist the Kansas State Department of Education to carry out the Kansas State Board of...", "company_name": "\n        Department of Education"},
{"job_title": "Earn Benefits Specialist", "description": "\nIncluding familiarity with Word, Excel, PowerPoint and the ability to  the Web comfortably; The EarnBenefits Specialist connects clients and their...", "company_name": "\n        Acacia Network"},
{"job_title": "Entry-Level Software Engineer", "description": "\nBy continuing to  the site, you agree to our use of cookies View our privacy policy View our accessibility info....", "company_name": "\n        eBay Inc."},
{"job_title": "Principal Systems Engineer (OBIEE Developer)", "description": "\nPlease take a moment to  through our website and learn more about what it means to serve with Halfaker....", "company_name": "\n        Halfaker and Associates"},
{"job_title": "Biological Science Technicians (Wildlife)", "description": "\nMakes  surveys; These positions are located on a Forest Service unit and performs duties in support of the wildlife management program....", "company_name": "\n        U.S. Forest Service"},
{"job_title": "Client Service Specialist", "description": "\nAbility to  internet sites and complete detailed data searches. Supports client employee benefits enrollment projects with Account Executives and other...", "company_name": ""},
{"job_title": "Business Associate", "description": "\nBy continuing to  the site, you agree to our use of cookies View our privacy policy View our accessibility info....", "company_name": "\n        eBay Inc."},
{"job_title": "Carpenter - Bridge/Wall", "description": "\nA Carpenter is defined as a craftsman with skill sets, and experience level greater than most other tradesmen. The carpenter will generally have a small hand", "company_name": ""},
{"job_title": "Sr. Spanish Language Specialist", "description": "\nBy continuing to  the site, you agree to our use of cookies View our privacy policy here View accessibility info here....", "company_name": "\n        eBay Inc."},
{"job_title": "Payments Risk Analytics", "description": "\nBy continuing to  the site, you agree to our use of cookies View our privacy policy View our accessibility info....", "company_name": "\n        eBay Inc."},
{"job_title": "Quality Engineer", "description": "\nBy continuing to  the site, you agree to our use of cookies View our privacy policy View our accessibility info....", "company_name": "\n        eBay Inc."},
{"job_title": "Contact Center Supervisor", "description": "\nThe Contact Center Supervisor is primarily responsible for supervising call center operations and activities while assisting with the development and", "company_name": "\n        MAXIMUS"},
{"job_title": "Project Specialist, Site Merchandising", "description": "\nThe Site Merchandising team is responsible for landing pages on Staples.com and SA, including  path pages, brand shops, and seasonal centers....", "company_name": "\n        Staples"},
{"job_title": "International Services Adviser", "description": "\nInternational Services Adviser- UC International Location: Cincinnati, OH, US University of Cincinnati Academic Affairs and Provost Division International", "company_name": "\n        University of Cincinnati"},
{"job_title": "Horticulture Technician", "description": "\nCuts fresh  for the animal collection according to  program; The Virginia Zoological Park in Norfolk, Virginia is seeking to hire an experienced...", "company_name": ""},
{"job_title": "Traffic Signal Technician 1", "description": "\nOnce at this page, you can  the list or search for a job description. To assist in repairing, installing and maintaining traffic signal systems on County...", "company_name": ""},
{"job_title": "About", "description": "\nConference Events ISTE Store Join ISTE Sign in Cart (0) Please verify your email address Clicking the button below will send an email message to and...", "company_name": "\n        International Society for Technology in Education"},
{"job_title": "Global Quality Analyst", "description": "\nBy continuing to  the site, you agree to our use of cookies View our privacy policy View our accessibility info....", "company_name": "\n        eBay Inc."},
{"job_title": "Strategic Partner Manager, MBA", "description": "\nBy continuing to  the site, you agree to our use of cookies View our privacy policy View our accessibility info....", "company_name": "\n        eBay Inc."},
{"job_title": "Global operations - Branded Supplies", "description": "\nBy continuing to  the site, you agree to our use of cookies View our privacy policy here View accessibility info here....", "company_name": "\n        eBay Inc."},
{"job_title": "Site Merchandiser", "description": "\nBy continuing to  the site, you agree to our use of cookies View our privacy policy View our accessibility info....", "company_name": "\n        eBay Inc."},
{"job_title": "Policy & Program Manager, Customer Trust", "description": "\nBy continuing to  the site, you agree to our use of cookies View our privacy policy View our accessibility info....", "company_name": "\n        eBay Inc."},
{"job_title": "Framework Integration Engineer - ENG0034603", "description": "\nThe application ecosystem creates a familiar app shop environment where customers can  and download useful and compelling apps that operate in a...", "company_name": "\n        General Motors"},
{"job_title": "EHS Manager - Amazon Go & Books", "description": "\nAmazon Books \u2013 a physical bookstore that allows customers to physically  a curated selection of books and devices....", "company_name": "\n        Amazon Corporate LLC"},
{"job_title": "Learning Services User Experience Mgr", "description": "\nThis role works closely with key stakeholders in learning services as well as branding, marketing, community managers, and other web site owners to create a...", "company_name": "\n        Sage"},
{"job_title": "Portfolio Management and Operations", "description": "\nBy continuing to  the site, you agree to our use of cookies View our privacy policy View our accessibility info....", "company_name": "\n        eBay Inc."},
{"job_title": "DWFP-Consv Assoc Biologist", "description": "\nParticipates in wildlife species or fish inventories, stream surveys, creel surveys,  and mast surveys, population censuses, distribution and migration...", "company_name": "\n        Mississippi State Personnel Board"},
{"job_title": "Category Manager", "description": "\nManage on-site product presentation and catalog data, as well as drive requirements into the search and  experience \u2013 Taxonomy, Navigation, Information...", "company_name": "\n        fiverr"},
{"job_title": "Sr. Director, Strategy", "description": "\nBy continuing to  the site, you agree to our use of cookies View our privacy policy here View accessibility info here....", "company_name": "\n        eBay Inc."},
{"job_title": "Product Manager", "description": "\nBy continuing to  the site, you agree to our use of cookies View our privacy policy View our accessibility info....", "company_name": "\n        eBay Inc."},
{"job_title": "Applied Researcher", "description": "\nBy continuing to  the site, you agree to our use of cookies View our privacy policy View our accessibility info....", "company_name": "\n        eBay Inc."},
{"job_title": "StubHub Customer Support", "description": "\nBy continuing to  the site, you agree to our use of cookies View our privacy policy View our accessibility info....", "company_name": "\n        eBay Inc."},
{"job_title": "Specialist, Global Display Operations", "description": "\nBy continuing to  the site, you agree to our use of cookies View our privacy policy here View accessibility info here....", "company_name": "\n        eBay Inc."},
{"job_title": "Research Scientist", "description": "\nWe are a centralized Machine Learning team in Retail Systems and we partner with a number of Retail teams to develop strategic solutions and platforms to drive...", "company_name": "\n        Amazon Corporate LLC"},
{"job_title": "Sales Associate", "description": "\nPeople don't just come in to browse; Description Retail Sales Consultant with Outstanding Management Potential Slumberland is a family-owned company and the...", "company_name": "\n        Slumberland Furniture"},
{"job_title": "DWFP-Consv Assoc Biologist", "description": "\nParticipates in wildlife species or fish inventories, stream surveys, creel surveys,  and mast surveys, population censuses, distribution and migration...", "company_name": "\n        State of Mississippi"},
{"job_title": "Senior Business Analyst", "description": "\nPlease take a moment to  through our website and learn more about what it means to serve with Halfaker....", "company_name": "\n        Halfaker and Associates"},
{"job_title": "Customer Service Representative job in San Diego, CA", "description": "\nCustomer Service Representative job in San Diego, CA Ajilon is working with a leading company to fill their open Customer Service Representative job in San", "company_name": "\n        Ajilon"},
{"job_title": "Merchant, Business & Industrial", "description": "\nBy continuing to  the site, you agree to our use of cookies View our privacy policy View our accessibility info....", "company_name": "\n        eBay Inc."},
{"job_title": "Product Manager - Connectivity and Integration Services", "description": "\nWe\u2019ll get in touch with you to let you know the next steps but in the meantime feel free to  this:. Job Requisition Number:....", "company_name": "\n        Bloomberg"},
{"job_title": "Senior Systems Engineer (Business Objects Developer)", "description": "\nPlease take a moment to  through our website and learn more about what it means to serve with Halfaker....", "company_name": "\n        Halfaker and Associates"},
{"job_title": "Online Customer Service / Sales Representative", "description": "\nOur live chat portal is designed to help customers via live chat as they  our website. We are searching for talented individuals to join us as Sales/Chat...", "company_name": "\n        Etech Global Services"},
{"job_title": "Project Analyst", "description": "\nPlease take a moment to  through our website and learn more about what it means to serve with Halfaker....", "company_name": "\n        Halfaker and Associates"},
{"job_title": "eBay Call Center Associate", "description": "\nBy continuing to  the site, you agree to our use of cookies View our privacy policy View our accessibility info....", "company_name": "\n        eBay Inc."},
{"job_title": "Category Manager, Pets", "description": "\nManage on-site product presentation and catalog data, and drive requirements into the search and  experience \u2013 Taxonomy, Navigation, Tagging, Attributes....", "company_name": "\n        Walmart eCommerce"},
{"job_title": "Asset Optimization Analyst", "description": "\nBy continuing to  the site, you agree to our use of cookies View our privacy policy View our accessibility info....", "company_name": "\n        eBay Inc."},
{"job_title": "Member of Technical Staff 1", "description": "\nBy continuing to  the site, you agree to our use of cookies View our privacy policy View our accessibility info....", "company_name": "\n        eBay Inc."},
{"job_title": "Senior Customer Insights Analyst", "description": "\nCollaborate with site merchandising to understand the impact of product placements,  methods, and internal search optimization techniques on conversion...", "company_name": "\n        ThinkGeek"},
{"job_title": "Sr. Manager, Marketplace Strategy", "description": "\nBy continuing to  the site, you agree to our use of cookies View our privacy policy here View accessibility info here....", "company_name": "\n        eBay Inc."},
{"job_title": "Business Analyst", "description": "\nBy continuing to  the site, you agree to our use of cookies View our privacy policy View our accessibility info....", "company_name": "\n        eBay Inc."},
{"job_title": "StubHub Call Center Representative", "description": "\nBy continuing to  the site, you agree to our use of cookies View our privacy policy View our accessibility info....", "company_name": "\n        eBay Inc."},
{"job_title": "Multichannel Assoc. Business Systems Consultant", "description": "\nThe Multichannel Associate Business Systems Consultant will be a default point of contact for Commercial BTS (IT) and will work directly with business and", "company_name": "\n        AbbVie"},
{"job_title": "MTS 1, Software Engineer", "description": "\nBy continuing to  the site, you agree to our use of cookies View our privacy policy View our accessibility info....", "company_name": "\n        eBay Inc."},
{"job_title": "Business and Technology Applications Analyst I - Biostatisti...", "description": "\nJob Type/Schedule This position is full-time and works approximately 40 hours per week. Department Name/Job Location This position is in the Division of", "company_name": "\n        Washington University in St. Louis"},
{"job_title": "Senior Business Analyst (Business Process Engineer)", "description": "\nPlease take a moment to  through our website and learn more about what it means to serve with Halfaker....", "company_name": "\n        Halfaker and Associates"},
{"job_title": "Principal Appraiser", "description": "\nOnce at this page, you can  the alphabetical list or search for a job description. To appraise and classify all types of apartment, commercial, industrial...", "company_name": ""},
{"job_title": "eBay Call Center Representative", "description": "\nBy continuing to  the site, you agree to our use of cookies View our privacy policy View our accessibility info....", "company_name": "\n        eBay Inc."},
{"job_title": "Engagement and Community Manager", "description": "\nBy continuing to  the site, you agree to our use of cookies View our privacy policy View our accessibility info....", "company_name": "\n        eBay Inc."},
{"job_title": "Business Analyst", "description": "\nPlease take a moment to  through our website and learn more about what it means to serve with Halfaker....", "company_name": "\n        Halfaker and Associates"},
{"job_title": "University Police Sergeant", "description": "\nKansas State University search Search K-State web, people, directories Browse A-Z Sign in K-State Online OrgSync MyLibrary KSIS HRIS Webmail Status", "company_name": ""},
{"job_title": "StubHub Fraud Agent", "description": "\nBy continuing to  the site, you agree to our use of cookies View our privacy policy View our accessibility info....", "company_name": "\n        eBay Inc."},
{"job_title": "Client Insights Manager, eBay Ads", "description": "\nBy continuing to  the site, you agree to our use of cookies View our privacy policy View our accessibility info....", "company_name": "\n        eBay Inc."},
{"job_title": "Hardware Engineer 3", "description": "\nBy continuing to  the site, you agree to our use of cookies View our privacy policy View our accessibility info....", "company_name": "\n        eBay Inc."},
{"job_title": "Junior Copywriter", "description": "\nWhen you read a newspaper, when you stare down an advertisement on the subway, when you close your eyes and listen to a speech, when you watch a press...", "company_name": "\n        Weber Shandwick"},
{"job_title": "Director of Program Management, C2C", "description": "\nBy continuing to  the site, you agree to our use of cookies View our privacy policy View our accessibility info....", "company_name": "\n        eBay Inc."},
{"job_title": "Program Manager", "description": "\nPlease take a moment to  through our website and learn more about what it means to serve with Halfaker....", "company_name": "\n        Halfaker and Associates"},
{"job_title": "Paid Search Manager", "description": "\nBy continuing to  the site, you agree to our use of cookies View our privacy policy View our accessibility info....", "company_name": "\n        eBay Inc."},
{"job_title": "Forklift Operator", "description": "\nMerit Medical Systems, Inc., an Equal Opportunity Employer M/F/D/V, is a dynamic, progressive and innovative company with a strong global presence. Our", "company_name": "\n        Merit Medical Systems Inc."},
{"job_title": "Senior Manager, eCommerce Merchandising", "description": "\nThe Senior Manager, eCommerce Merchandising owns the website\u2019s ability to build our customer base, generate sales based on our product selection/assortment", "company_name": "\n        Airgas Inc."},
{"job_title": "Technical Program Product Manager", "description": "\nBy continuing to  the site, you agree to our use of cookies View our privacy policy View our accessibility info....", "company_name": "\n        eBay Inc."},
{"job_title": "Storage Systems Engineer", "description": "\nBy continuing to  the site, you agree to our use of cookies View our privacy policy here View accessibility info here....", "company_name": "\n        eBay Inc."},
{"job_title": "Member of Technical Staff, Quality", "description": "\nBy continuing to  the site, you agree to our use of cookies View our privacy policy View our accessibility info....", "company_name": "\n        eBay Inc."},
{"job_title": "StubHub Customer Experience Expert", "description": "\nBy continuing to  the site, you agree to our use of cookies View our privacy policy View our accessibility info....", "company_name": "\n        eBay Inc."},
{"job_title": "Development Manager", "description": "\nCome work at a place where innovation and teamwork come together to support the most exciting missions in the world! Job Description Toys R Us\u2019s Global", "company_name": "\n        Toys R Us"},
{"job_title": "Lead Product Manager, Adobe Search", "description": "\nBecome part of this growing team at Adobe and have a phenomenal impact by providing search, , machine learning and recommendation across the creative...", "company_name": "\n        Adobe"},
{"job_title": "Integrated Campaign Manager", "description": "\nBy continuing to  the site, you agree to our use of cookies View our privacy policy View our accessibility info....", "company_name": "\n        eBay Inc."},
{"job_title": "Interest Rate Derivatives Market Specialist", "description": "\nWe\u2019ll get in touch with you to let you know the next steps but in the meantime feel free to  this:. Job Requisition Number:....", "company_name": "\n        Bloomberg"},
{"job_title": "Data Scientist, Search", "description": "\nBy continuing to  the site, you agree to our use of cookies View our privacy policy View our accessibility info....", "company_name": "\n        eBay Inc."},
{"job_title": "StubHub Customer Service Associate", "description": "\nBy continuing to  the site, you agree to our use of cookies View our privacy policy View our accessibility info....", "company_name": "\n        eBay Inc."},
{"job_title": "E-Commerce Category Specialist - Experienced", "description": "\nPosition Description As the owner of your category you will be developed and trained to: \u2022 Manage and monitor onboarding and item set up process to make sure", "company_name": "\n        Walmart eCommerce"},
{"job_title": "Engineer", "description": "\nYou\u2019ll have the opportunity to design, develop and support innovative solutions across a variety of applications, platforms and environments, building tomorrow...", "company_name": "\n        TARGET"},
{"job_title": "Category Specialist - Entry Level", "description": "\nPosition Description As the owner of your category you will be developed and trained to: \u2022 Manage and monitor onboarding and item set up process to make sure", "company_name": "\n        Walmart eCommerce"},
{"job_title": "MTS 1 Release Engineer", "description": "\nBy continuing to  the site, you agree to our use of cookies View our privacy policy View our accessibility info....", "company_name": "\n        eBay Inc."},
{"job_title": "Manager, Taxonomy &  Development", "description": "\nWe are looking for a smart and passionate leader to join our  Taxonomy leadership team. As a  Manager you will have the opportunity to build global...", "company_name": "\n        Amazon Corporate LLC"},
{"job_title": "IT FIELD SUPP SPEC II", "description": "\nAble to connect to and  network drives. The Information Technology (IT) Field Support Specialist II:....", "company_name": "\n        Premier Health Partners"},
{"job_title": "Operations Intern", "description": "\n All of Our Open Positions. In this role, you will have the opportunity to learn and execute on a breadth of business operations activities and work...", "company_name": "\n        New Breed Marketing"},
{"job_title": "OTC 2017 Career Opportunities", "description": "\n our current openings online at:. The Weir Group has been making our global customers more efficient for nearly 150 years....", "company_name": ""},
{"job_title": "Software Engineer II", "description": "\nUniversal Storefronts team provide users with a world-class , search, and purchase experience for merchandise across multiple product categories....", "company_name": "\n        Microsoft"},
{"job_title": "Analytics Mngr, EU Adv. & Monetization", "description": "\nBy continuing to  the site, you agree to our use of cookies View our privacy policy View our accessibility info....", "company_name": "\n        eBay Inc."},
{"job_title": "eBay Customer Service Associate", "description": "\nBy continuing to  the site, you agree to our use of cookies View our privacy policy View our accessibility info....", "company_name": "\n        eBay Inc."},
{"job_title": "Director of C2C Competitive Strategy", "description": "\nBy continuing to  the site, you agree to our use of cookies View our privacy policy View our accessibility info....", "company_name": "\n        eBay Inc."},
{"job_title": "System Software Staff Consltnt", "description": "\n the job requisition number to see the position description. To assist the Kansas State Department of Education to carry out the Kansas State Board of...", "company_name": "\n        Department of Education"},
{"job_title": "Inside Sales Representative", "description": "\nThe Inside Sales Representative will play a key role in helping to build the sales pipeline by generating qualified leads for the Account Executives in all", "company_name": ""},
{"job_title": "Senior Analyst, C2C", "description": "\nBy continuing to  the site, you agree to our use of cookies View our privacy policy View our accessibility info....", "company_name": "\n        eBay Inc."},
{"job_title": "MTS1, Software Engineer", "description": "\nBy continuing to  the site, you agree to our use of cookies View our privacy policy View our accessibility info....", "company_name": "\n        eBay Inc."},
{"job_title": "Capture Manager", "description": "\nPlease take a moment to  through our and learn more about what it means to serve with Halfaker. Halfaker and Associates, an award winning high growth...", "company_name": "\n        Halfaker and Associates"},
{"job_title": "ecommerce Administrative Coordinator", "description": "\nOverview: The eCommerce Admin. Coordinator will be responsible for the onboarding and merchandise processing of all SKU\u2019s featured across our websites. Key", "company_name": "\n        Bed Bath & Beyond"},
{"job_title": "Application Manager", "description": "\nApplication Manager - 170005766 At U.S. Bank, we're passionate about helping customers and the communities where we live and work. The fifth-largest bank", "company_name": "\n        U.S. Bank"},
{"job_title": "Social Media Support Specialist", "description": "\nBy continuing to  the site, you agree to our use of cookies View our privacy policy View our accessibility info....", "company_name": "\n        eBay Inc."},
{"job_title": "Quality Assurance Tech II", "description": "\nDemonstrated ability to  file systems and diagnose errors using log files. Quality Assurance Technician:....", "company_name": ""},
{"job_title": "Spectrum Store Greeter (Part-Time)", "description": "\nManage customer traffic to afford customers the opportunity to  the store without losing their service position. Client Reference Code:....", "company_name": "\n        Spectrum"},
{"job_title": "Applied Scientist", "description": "\nAutomatic  Classification presents a unique opportunity to machine learning enthusiasts to practice their passion for a company that is the e-tailer of...", "company_name": "\n        Amazon Corporate LLC"},
{"job_title": "Sr.  Developer & Taxonomist", "description": "\nWe are looking for a smart and passionate person to join our  Taxonomy Team as a Sr. This person will help build and develop an intuitive and...", "company_name": "\n        Amazon Corporate LLC"},
{"job_title": "Sr. Manager Policy & Program Efficiency", "description": "\nBy continuing to  the site, you agree to our use of cookies View our privacy policy View our accessibility info....", "company_name": "\n        eBay Inc."},
{"job_title": "Analyst (Watch Analyst)", "description": "\nPlease take a moment to  through our website and learn more about what it means to serve with Halfaker....", "company_name": "\n        Halfaker and Associates"},
{"job_title": "Director, Growth Analytics", "description": "\nBy continuing to  the site, you agree to our use of cookies View our privacy policy View our accessibility info....", "company_name": "\n        eBay Inc."},
{"job_title": "Fellow, Global Health", "description": "\nGroup Summary: Our Global Health Program (GHP) harnesses advances in science and technology to save lives in poor countries. We focus on the health problems", "company_name": "\n        Bill & Melinda Gates Foundation"},
{"job_title": "Policy Operations Manager, Seller", "description": "\nBy continuing to  the site, you agree to our use of cookies View our privacy policy View our accessibility info....", "company_name": "\n        eBay Inc."},
{"job_title": "Sr. Product Manger- ECOM", "description": "\nResponsibilities: The Sr. Product Manager - Ecommerce is a strategic role that leads a team to drive incremental profit and customer satisfaction through the", "company_name": "\n        Office Depot"},
{"job_title": "Software Engineer, Commerce Pricing", "description": "\nA desire to tackle different facets of pricing including user experience on product  and search. We are looking for an entrepreneurial software engineer...", "company_name": "\n        Houzz"},
{"job_title": "PMO Sr. Manager", "description": "\nBy continuing to  the site, you agree to our use of cookies View our privacy policy here View accessibility info here....", "company_name": "\n        eBay Inc."},
{"job_title": "Executive Admin", "description": "\nBy continuing to  the site, you agree to our use of cookies View our privacy policy View our accessibility info....", "company_name": "\n        eBay Inc."},
{"job_title": "Executive Assistant job in San Diego, CA", "description": "\nExecutive Assistant job in San Diego, CA Ajilon is recruiting to fill our client\u2019s Executive Assistant job in San Diego, CA. To qualify, you must possess at", "company_name": "\n        Ajilon"},
{"job_title": "Sr. Manager, Inventory Sourcing/Strategy", "description": "\nBy continuing to  the site, you agree to our use of cookies View our privacy policy here View accessibility info here....", "company_name": "\n        eBay Inc."},
{"job_title": "Digitial Experience Manager", "description": "\nEndeca search and  platform a plus - 3 years required; Leads efforts to evolve search and  paths, product pages, checkout flow, quoting and other...", "company_name": "\n        Wesco International"},
{"job_title": "Sr. Manager, Customer Experience", "description": "\nBy continuing to  the site, you agree to our use of cookies View our privacy policy here View accessibility info here....", "company_name": "\n        eBay Inc."},
{"job_title": "eBay Call Center Agent", "description": "\nBy continuing to  the site, you agree to our use of cookies View our privacy policy View our accessibility info....", "company_name": "\n        eBay Inc."},
{"job_title": "Corporations Core Terminal Relationship Manager", "description": "\nWe\u2019ll get in touch with you to let you know the next steps but in the meantime feel free to  this:. Job Requisition Number:....", "company_name": "\n        Bloomberg"},
{"job_title": "Customer Success Associate - Spanish/Portuguese", "description": "\nTripAdvisor is seeking a Bilingual Customer Success Associate, aka Optimization Consultant, to join the Inside Sales organization of Hotel Solutions. An", "company_name": "\n        TripAdvisor"},
{"job_title": "Enrollment Services Technical Coordinator", "description": "\nThe Enrollment Services Technical Coordinator provides day-to-day, ground level support in the area of student administration system technology and CRM system", "company_name": "\n        University of Baltimore"},
{"job_title": "Product Manager - Media", "description": "\nThis spans from our home pages and inspiration to search and . At Wayfair, our Product Management team is responsible for providing the vision, execution...", "company_name": "\n        Wayfair"},
{"job_title": "Sales Engineer", "description": "\nEchoStor Technologies is searching for a self-motivated, team oriented technical engineer with a passion for consultative selling. This resource will join a", "company_name": ""},
{"job_title": "Trust & Safety Supervisor", "description": "\nBy continuing to  the site, you agree to our use of cookies View our privacy policy View our accessibility info....", "company_name": "\n        eBay Inc."},
{"job_title": "Delivery Director, Ecommerce", "description": "\nAmerican Achievement Corporation has a long and successful history, providing products that mark special moments and achievements in people\u2019s lives. From our", "company_name": "\n        Balfour"},
{"job_title": "Solution Architect", "description": "\nPlease take a moment to  through our website and learn more about what it means to serve with Halfaker....", "company_name": "\n        Halfaker and Associates"},
{"job_title": "eBay Customer Service Representative", "description": "\nBy continuing to  the site, you agree to our use of cookies View our privacy policy View our accessibility info....", "company_name": "\n        eBay Inc."},
{"job_title": "Head of US Exports, Senior Manager", "description": "\nBy continuing to  the site, you agree to our use of cookies View our privacy policy View our accessibility info....", "company_name": "\n        eBay Inc."},
{"job_title": "Fleet Manager", "description": "\nThe Fleet Manager is responsible for balancing the needs of drivers and maximizing production. Fleet Managers ensure high quality and profitable operation of", "company_name": "\n        Warren Transport"},
{"job_title": "Human Resources Specialist job in San Diego, CA", "description": "\nHuman Resources Specialist job in San Diego, CA Ajilon is working in conjunction with a large healthcare company to fill their open Human Resources", "company_name": "\n        Ajilon"},
{"job_title": "Sales Associate", "description": "\nPeople don't just come in to browse; Retail Sales Consultant with Outstanding Management Potential....", "company_name": "\n        Slumberland, Inc."},
{"job_title": "Maps Client Engineering Manager, Core", "description": "\nSearch, , viewing places, and overall app infrastructure / architecture. Do you want to shape the future of Maps.app for Apple?...", "company_name": "\n        Apple"},
{"job_title": "Android Engineer", "description": "\nBy continuing to  the site, you agree to our use of cookies View our privacy policy View our accessibility info....", "company_name": "\n        eBay Inc."},
{"job_title": "Sr. Product Manager - Consumer Innovation Center", "description": "\nAs the world's largest dedicated security technology company, McAfee delivers proactive and proven solutions and services that secure systems and networks...", "company_name": "\n        McAfee"},
{"job_title": "Sr. Director, Transportation", "description": "\nBy continuing to  the site, you agree to our use of cookies View our privacy policy View our accessibility info....", "company_name": "\n        eBay Inc."},
{"job_title": "Lead Product Manager - Technical", "description": "\nBy continuing to  the site, you agree to our use of cookies View our privacy policy View our accessibility info....", "company_name": "\n        eBay Inc."},
{"job_title": "Senior Manager - Cross Channel Analytics", "description": "\nBy continuing to  the site, you agree to our use of cookies View our privacy policy View our accessibility info....", "company_name": "\n        eBay Inc."},
{"job_title": "Senior Applications Developer", "description": "\n the job requisition number to see the position description. To assist the Kansas State Department of Education to carry out the Kansas State Board of...", "company_name": "\n        Department of Education"},
{"job_title": "Developer Technical Support Engineer", "description": "\nBy continuing to  the site, you agree to our use of cookies View our privacy policy View our accessibility info....", "company_name": "\n        eBay Inc."},
{"job_title": "Spectrum Sales Greeter", "description": "\nManage customer traffic to afford customers the opportunity to  the store without losing their service position. Client Reference Code:....", "company_name": "\n        Spectrum"},
{"job_title": "Clinical Supervisor", "description": "\nVictory Programs is seeking a talented and dedicated Licensed Clinician to join our Women's Hope team in the roles of Clinical Supervisor (Full Time position)", "company_name": ""},
{"job_title": "Member Services Clerk job in San Diego, CA", "description": "\nMember Services Clerk job in San Diego, CA Ajilon is working with our client, a very large, local non-profit organization, to fill their open Member Services", "company_name": "\n        Ajilon"},
{"job_title": "Quality Lead", "description": "\nBy continuing to  the site, you agree to our use of cookies View our privacy policy here View accessibility info here....", "company_name": "\n        eBay Inc."},
{"job_title": "Marketing Assistant job in San Diego, CA", "description": "\nMarketing Assistant job in San Diego, CA Ajilon is partnering with a leading media company to fill their open Marketing Assistant job in San Diego, CA. To", "company_name": "\n        Ajilon"},
{"job_title": "Demand Generation Marketer", "description": "\nDemand Generation Marketer In this role, you will be responsible for New Breed\u2019s Demand Generation efforts from managing our website to Inbound campaigns....", "company_name": "\n        New Breed Marketing"},
{"job_title": "Senior Workday People Technology Lead", "description": "\nBy continuing to  the site, you agree to our use of cookies View our privacy policy here View accessibility info here....", "company_name": "\n        eBay Inc."},
{"job_title": "Risk Experience & Transformation", "description": "\nBy continuing to  the site, you agree to our use of cookies View our privacy policy View our accessibility info....", "company_name": "\n        eBay Inc."},
{"job_title": "Senior Product Manager, Kindle", "description": "\nThis person will identify key customer segments and define customer experience, from  and discovery through to the reading experience, helping to drive...", "company_name": "\n        Amazon Corporate LLC"},
{"job_title": "Part-time Administrative Assistant job in San Diego, CA", "description": "\nPart-time Administrative Assistant job in San Diego, CA Ajilon is working again with our client, a prestigious educational institution, to fill their open", "company_name": "\n        Ajilon"},
{"job_title": "Senior Engineer - Finance/Package", "description": "\nYou\u2019ll have the opportunity to design, develop and support innovative solutions across a variety of applications, platforms and environments, building tomorrow...", "company_name": "\n        TARGET"},
{"job_title": "Senior Project Analyst", "description": "\nPlease take a moment to  through our website and learn more about what it means to serve with Halfaker....", "company_name": "\n        Halfaker and Associates"},
{"job_title": "Portfolio Manager", "description": "\nPlease take a moment to  through our website and learn more about what it means to serve with Halfaker....", "company_name": "\n        Halfaker and Associates"},
{"job_title": "Trust&Safety:Investigator/Threat Analyst", "description": "\nBy continuing to  the site, you agree to our use of cookies View our privacy policy View our accessibility info....", "company_name": "\n        eBay Inc."},
{"job_title": "Receptionist job in San Diego, CA", "description": "\nReceptionist job in San Diego, CA Ajilon is partnering with a leading global company to fill their open Receptionist job in San Diego, CA. To qualify, you", "company_name": "\n        Ajilon"},
{"job_title": "Principal Software Tester", "description": "\nPlease take a moment to  through our website and learn more about what it means to serve with Halfaker....", "company_name": "\n        Halfaker and Associates"},
{"job_title": "Administrative Assistant job in San Diego, CA", "description": "\nAdministrative Assistant job in San Diego, CA Ajilon is working our client in the architecture industry to fill their open Administrative Assistant job in", "company_name": "\n        Ajilon"},
{"job_title": "Returning Employee", "description": "\nOnce you are logged in you can  jobs and apply to any you are interested in. Are you getting excited for another awesome season?...", "company_name": "\n        Mt. Hood Meadows"},
{"job_title": "Merchandising - Senior Product Manager", "description": "\nBy continuing to  the site, you agree to our use of cookies View our privacy policy here View accessibility info here....", "company_name": "\n        eBay Inc."},
{"job_title": "SEO Intern", "description": "\n All of Our Open Positions. Search Engine Optimization (SEO) Intern....", "company_name": "\n        New Breed Marketing"},
{"job_title": "Sr Database Administrator", "description": "\nPlease take a moment to  through our website and learn more about what it means to serve with Halfaker....", "company_name": "\n        Halfaker and Associates"},
{"job_title": "Research Engineer, AI", "description": "\nBy continuing to  the site, you agree to our use of cookies View our privacy policy here View accessibility info here....", "company_name": "\n        eBay Inc."},
{"job_title": "Payroll Associate", "description": "\nPlease take a moment to  through our website and learn more about what it means to serve with Halfaker....", "company_name": "\n        Halfaker and Associates"},
{"job_title": "Global Data Science & Insight Strategy Director", "description": "\nWell get in touch with you to let you know the next steps- but in the meantime feel free to  this:. Job Requisition Number:....", "company_name": "\n        Bloomberg"},
{"job_title": "Sr SW Developer -Contact Reduction", "description": "\nBy continuing to  the site, you agree to our use of cookies View our privacy policy View our accessibility info....", "company_name": "\n        eBay Inc."},
{"job_title": "Client Insights Manager", "description": "\nBy continuing to  the site, you agree to our use of cookies View our privacy policy here View accessibility info here....", "company_name": "\n        eBay Inc."},
{"job_title": "Ecommerce Product Owner - ", "description": "\nThe Product Owner represents the \u201cvoice of the customer\u201d by maintaining and prioritizing the product backlog to ensure that the team is working on stories", "company_name": "\n        BJ's Wholesale Club, Inc."},
{"job_title": "Software Test Engineer", "description": "\nYour focus will be the development of RefWorks, a product designed to make research management and paper-writing easy by managing references, generating...", "company_name": "\n        ProQuest"},
{"job_title": "Studio Consultant", "description": "\nGreet buyers in the Studio showroom and conduct initial, additional , and final appointments. Share by email:....", "company_name": "\n        KB Home"},
{"job_title": "Undergraduate Pre-Med Intern, Northwestern Medical Group Cen...", "description": "\nThe Northwestern Medicine Pre-Med Undergraduate Internship presents a valuable opportunity for pre-med undergraduate students to gain an experiential", "company_name": "\n        Northwestern Medicine"},
{"job_title": "Senior UX Researcher", "description": "\nBy continuing to  the site, you agree to our use of cookies View our privacy policy View our accessibility info....", "company_name": "\n        eBay Inc."},
{"job_title": "Cloud Business Coordinator", "description": "\nAt the heart of Ingram Micro\u2019s cloud strategy is the cloud marketplace, an eCommerce platform running on Odin Service Automation technology which allows...", "company_name": "\n        Ingram Micro Cloud"},
{"job_title": "User Experience Architect, Zoro Tools", "description": "\nLead wireframing and prototyping efforts for , search, and transactional experiences for the website. ZORO is creating innovative digital solutions that...", "company_name": "\n        W.W. Grainger"},
{"job_title": "Director of Software Development", "description": "\nBy continuing to  the site, you agree to our use of cookies View our privacy policy View our accessibility info....", "company_name": "\n        eBay Inc."},
{"job_title": "Sales Manager (Rooms)", "description": "\n for books in the world's oldest book store, The Moravian Book Shop, founded in 1745. Hampton Inn & Suites Bethlehem is located in the historic Lehigh...", "company_name": "\n        GF Management"},
{"job_title": "Principal Systems Engineer (Sr. Deployment Manager)", "description": "\nPlease take a moment to  through our website and learn more about what it means to serve with Halfaker....", "company_name": "\n        Halfaker and Associates"},
{"job_title": "Product Manager", "description": "\nThis spans from our home pages and inspiration to search and . At Wayfair, our Product Management team is responsible for providing the vision, execution...", "company_name": "\n        Wayfair"},
{"job_title": "Software Engineer, Back End", "description": "\nBy continuing to  the site, you agree to our use of cookies View our privacy policy View our accessibility info....", "company_name": "\n        eBay Inc."},
{"job_title": "Lead Engineer", "description": "\nYou\u2019ll have the opportunity to design, develop and support innovative solutions across a variety of applications, platforms and environments, building tomorrow...", "company_name": "\n        TARGET"},
{"job_title": "Multicultural Marketing Manager", "description": "\nBy continuing to  the site, you agree to our use of cookies View our privacy policy View our accessibility info....", "company_name": "\n        eBay Inc."},
{"job_title": "Agent, Customer Care", "description": "\nCustomer Service Representatives (CSRs) will handle primarily inbound customer service and sales calls from customers who are requesting assistance with", "company_name": "\n        iQor"},
{"job_title": "Programmer", "description": "\nThe latter responsibility is relevant to Genes for Good, an online genetic study where participants can view, , and learn about their health, behavior,...", "company_name": "\n        University of Minnesota"},
{"job_title": "Mortgage Market Specialist", "description": "\nWe\u2019ll get in touch with you to let you know the next steps but in the meantime feel free to  this:. Job Requisition Number:....", "company_name": "\n        Bloomberg"},
{"job_title": "Riparian Project Manager", "description": "\nO Contributing to site design, including fencing, irrigation, vegetation and  control. The Freshwater Trust (TFT), a non-profit leader in river...", "company_name": ""},
{"job_title": "Residence Coordinator", "description": "\nKansas State University search Search K-State web, people, directories Browse A-Z Sign in K-State Online OrgSync MyLibrary KSIS HRIS Webmail Status", "company_name": ""},
{"job_title": "Senior Systems Engineer (Analyst)", "description": "\nPlease take a moment to  through our website and learn more about what it means to serve with Halfaker....", "company_name": "\n        Halfaker and Associates"},
{"job_title": "Dir, Conversion Rate & Rev Optimization", "description": "\nSage is on an exciting journey to totally transform the digital experiences it provides its 3m+ customers across 24 countries. We are on a mission to deliver", "company_name": "\n        Sage"},
{"job_title": "Sr. Software Engineer", "description": "\nYour focus will be the development of RefWorks, a product designed to make research management and paper-writing easy by managing references, generating...", "company_name": "\n        ProQuest"},
{"job_title": "Director, HR Communications", "description": "\nBy continuing to  the site, you agree to our use of cookies View our privacy policy View our accessibility info....", "company_name": "\n        eBay Inc."},
{"job_title": "Item Authentication -- Software Engineer", "description": "\nBy continuing to  the site, you agree to our use of cookies View our privacy policy here View accessibility info here....", "company_name": "\n        eBay Inc."},
{"job_title": "VP, CMO StubHub", "description": "\nBy continuing to  the site, you agree to our use of cookies View our privacy policy View our accessibility info....", "company_name": "\n        eBay Inc."},
{"job_title": "Production Manager - 2nd Shift - Food or Bev Manufacturing a...", "description": "\nHere's another outstanding expansion opportunity with multi-site national food product manufacturer! Apply for immediate consideration! New Plant! 2nd Shift", "company_name": ""},
{"job_title": "Financial/Billing Support Analyst", "description": "\nBy continuing to  the site, you agree to our use of cookies View our privacy policy here View accessibility info here....", "company_name": "\n        eBay Inc."},
{"job_title": "Principal Systems Engineer", "description": "\nPlease take a moment to  through our website and learn more about what it means to serve with Halfaker....", "company_name": "\n        Halfaker and Associates"},
{"job_title": "Product Manager", "description": "\nOnline conversion rates, overall revenue, EBITDA, and overall customer satisfaction for online  and purchasing of Tire Buyer products and partner dealer...", "company_name": "\n        American Tire Distributors"},
{"job_title": "Senior User Experience Researcher", "description": "\nBy continuing to  the site, you agree to our use of cookies View our privacy policy View our accessibility info....", "company_name": "\n        eBay Inc."},
{"job_title": "Chief of Staff, Data Platform Eng", "description": "\nBy continuing to  the site, you agree to our use of cookies View our privacy policy View our accessibility info....", "company_name": "\n        eBay Inc."},
{"job_title": "Technical Product Manager", "description": "\nBy continuing to  the site, you agree to our use of cookies View our privacy policy here View accessibility info here....", "company_name": "\n        eBay Inc."},
{"job_title": "Senior Product Manager", "description": "\nEnd-to-end ownership for the customer experience of Your Garage, from strategy to feature definition, UX design, detail page features, data quality, search,...", "company_name": "\n        Amazon Services, LLC"},
{"job_title": "General Manager", "description": "\n for books in the world's oldest book store, The Moravian Book Shop, founded in 1745. Hampton Inn & Suites Bethlehem is located in the historic Lehigh...", "company_name": "\n        GF Management"},
{"job_title": "System Administrator", "description": "\nPlease take a moment to  through our website and learn more about what it means to serve with Halfaker....", "company_name": "\n        Halfaker and Associates"},
{"job_title": "System Architect", "description": "\nPlease take a moment to  through our website and learn more about what it means to serve with Halfaker....", "company_name": "\n        Halfaker and Associates"},
{"job_title": "Executive Assistant", "description": "\nBy continuing to  the site, you agree to our use of cookies View our privacy policy View our accessibility info....", "company_name": "\n        eBay Inc."},
{"job_title": "Technical Recruiter", "description": "\nPlease take a moment to  through our website and learn more about what it means to serve with Halfaker....", "company_name": "\n        Halfaker and Associates"},
{"job_title": "Logistics Clerk I", "description": "\nClick  current openings to see the several pages of openings. SUMMARY OF DUTIES Performs either shipping or replenishment responsibilities....", "company_name": "\n        Merit Medical Systems Inc."},
{"job_title": "Group Product Manager", "description": "\nA successful candidate in this position is delivering products that optimize the marketplace of hotel inventory and pricing made available via our platform APIs...", "company_name": "\n        TripAdvisor"},
{"job_title": "Category Specialist", "description": "\neCommerce Retail Program \u2013 Category Specialist \u2013 Entry Level About Walmart.com and Jet.com Work at a startup and the Fortune 1 Company at the same time: We", "company_name": "\n        Hayneedle"},
{"job_title": "Data Analyst", "description": "\nPlease take a moment to  through our website and learn more about what it means to serve with Halfaker....", "company_name": "\n        Halfaker and Associates"},
{"job_title": "Administrative Assistant job in Rancho Bernardo, CA", "description": "\nAdministrative Assistant job in Rancho Bernardo, CA Ajilon is partnering with a property management company to fill their open Administrative Assistant job", "company_name": "\n        Ajilon"},
{"job_title": "Sr. Product Manager - Technical", "description": "\nBy continuing to  the site, you agree to our use of cookies View our privacy policy View our accessibility info....", "company_name": "\n        eBay Inc."},
{"job_title": "Search Science Quality Engineer", "description": "\nBy continuing to  the site, you agree to our use of cookies View our privacy policy here View accessibility info here....", "company_name": "\n        eBay Inc."},
{"job_title": "Technical Program Manager, Relevance Measurement", "description": "\nThe primary mission of the Search Insights team is to bring visibility into how Ama zon users search and  for products....", "company_name": "\n        A9.com"},
{"job_title": "Director, Corporate Development", "description": "\nBy continuing to  the site, you agree to our use of cookies View our privacy policy here View accessibility info here....", "company_name": "\n        eBay Inc."},
{"job_title": "Billing Analyst job in San Diego, CA", "description": "\nBilling Analyst job in San Diego, CA Ajilon is working with a leading energy company to fill their open Billing Analyst job in San Diego, CA. To qualify, you", "company_name": "\n        Ajilon"},
{"job_title": "Manager, Product Analytics & Insights", "description": "\nBy continuing to  the site, you agree to our use of cookies View our privacy policy View our accessibility info....", "company_name": "\n        eBay Inc."},
{"job_title": "Performance Marketing Analyst", "description": "\nBy continuing to  the site, you agree to our use of cookies View our privacy policy here View accessibility info here....", "company_name": "\n        eBay Inc."},
{"job_title": "Senior Member of Technical Staff", "description": "\nBy continuing to  the site, you agree to our use of cookies View our privacy policy View our accessibility info....", "company_name": "\n        eBay Inc."},
{"job_title": "Eng 3, Software Dev & Engineering/Software Engineer 3 3680", "description": "\nWhen necessary, upgrade Apache Solr and Lucene to obtain higher performance and more advanced features for search and browse;...", "company_name": "\n        Comcast"},
{"job_title": "Software Development Engineer Web", "description": "\nBy continuing to  the site, you agree to our use of cookies View our privacy policy View our accessibility info....", "company_name": "\n        eBay Inc."},
{"job_title": "T. Rowe Price - NYC Technology Development Center", "description": "\nFor more detailed information and specific job posts, please  our website and search by location (NYC)....", "company_name": "\n        T. Rowe Price"},
{"job_title": "Software Engineer 2, Quality", "description": "\nBy continuing to  the site, you agree to our use of cookies View our privacy policy View our accessibility info....", "company_name": "\n        eBay Inc."},
{"job_title": "eCommerce Online Merchandiser", "description": "\nAct as primary merchandising subject matter expert for search and  taxonomy. The e-Commerce Online Merchandiser will beresponsible for operating and...", "company_name": "\n        Wesco International"},
{"job_title": "Staff Software QA Engineer", "description": "\nAbility to  through C and C++ code and figure out test scenarios or nail down the root cause of a bug till the sub module or the line number....", "company_name": "\n        Infinera"},
{"job_title": "Global Incentives Marketing Manager", "description": "\nBy continuing to  the site, you agree to our use of cookies View our privacy policy View our accessibility info....", "company_name": "\n        eBay Inc."},
{"job_title": "Customer Support Specialist", "description": "\nPosition Summary: The Customer Support Specialist assists customers with account inquiries and products/services over the phone, online chat, and email.", "company_name": "\n        Union Bank and Trust Company"},
{"job_title": "Proposal Manager", "description": "\nPlease take a moment to  through our website and learn more about what it means to serve with Halfaker....", "company_name": "\n        Halfaker and Associates"},
{"job_title": "Technical Support Engineer - Bilingual (Spanish)", "description": "\nClick on the link to  the photo gallery:. Every day, in nearly 100 countries around the world, millions of people depend on Daktronics scoring and display...", "company_name": "\n        Daktronics"},
{"job_title": "Enterprise Risk Manager (Unclassified)", "description": "\nOnce at this page, you can  the list of job descriptions. Lead the organization in county-wide strategic risk management....", "company_name": ""},
{"job_title": "Senior Cloud Backend Engineer, ESB", "description": "\nBy continuing to  the site, you agree to our use of cookies View our privacy policy View our accessibility info....", "company_name": "\n        eBay Inc."},
{"job_title": "Senior Inbound Strategist", "description": "\n All of Our Open Positions. Senior Inbound Marketing Strategist....", "company_name": "\n        New Breed Marketing"},
{"job_title": "Senior Product Manager", "description": "\nCollaborate with other TiVo Product Managers to define how metadata, discovery, logging and reporting features are used and delivered for core TiVo features...", "company_name": "\n        TiVo"},
{"job_title": "Director, Brand Innovation", "description": "\nBy continuing to  the site, you agree to our use of cookies View our privacy policy View our accessibility info....", "company_name": "\n        eBay Inc."},
{"job_title": "Director, Digital Marketing and eCommerce", "description": "\nThe Norton Secured Seal and Symantec Seal-in-Search assure customers they are safe to search, , interact, and buy....", "company_name": "\n        Symantec"},
{"job_title": "Shipping Business Analyst", "description": "\nBy continuing to  the site, you agree to our use of cookies View our privacy policy View our accessibility info....", "company_name": "\n        eBay Inc."},
{"job_title": "Sr Product Manager - Trust", "description": "\nBy continuing to  the site, you agree to our use of cookies View our privacy policy View our accessibility info....", "company_name": "\n        eBay Inc."},
{"job_title": "New Business Associate", "description": "\nSales & Marketing, NY New Business Associate Expanding its North American sales team, Optimove is seeking a high-energy, ambitious and passionate sales...", "company_name": ""},
{"job_title": "Program Manager \u2013 Merchant Incubation", "description": "\nBy continuing to  the site, you agree to our use of cookies View our privacy policy here View accessibility info here....", "company_name": "\n        eBay Inc."},
{"job_title": "Sr. Mgr, Business Rules", "description": "\nBy continuing to  the site, you agree to our use of cookies View our privacy policy View our accessibility info....", "company_name": "\n        eBay Inc."},
{"job_title": "Buyer 3", "description": "\nOnce at the website  to the location using the following path of menus:. The Buyer 3 position is a journey level classification, performing complex...", "company_name": ""}
]